{
    "chartName": "Chart 2",
    "chartType": "line",
    "series": [
        {
            "name": "Series One",
            "data": [3, 5, 8, 12, 15, 10, 5, 3]
        },
        {
            "name": "Series Two",
            "data": [3, 5, 10, 15, 12, 8, 5, 3]
        }
    ],
    "xAxis": {
        "categories": ["Point 1", "Point 2", "Point 3", "Point 4", "Point 5", "Point 6", "Point 7", "Point 8"],
        "title": { "text": "Some Values" }
    },
    "yAxis": {
        "title": { "text": "Some Numbers" }
    }
}